{
  "project_info": {
    "project_number": "421854113788",
    "project_id": "kp-aplikasi",
    "storage_bucket": "kp-aplikasi.appspot.com"
  },
  "client": [
    {
      "client_info": {
        "mobilesdk_app_id": "1:421854113788:android:43ecc8bb2cdba7c54c0c79",
        "android_client_info": {
          "package_name": "com.ortuapp.aplikasi_ortu"
        }
      },
      "oauth_client": [
        {
          "client_id": "421854113788-e53qjh3sief86glnfcudgi0ssue9qhp8.apps.googleusercontent.com",
          "client_type": 3
        }
      ],
      "api_key": [
        {
          "current_key": "AIzaSyDvTanUflftyqZyrHc-H1A1RQhgFhZMwc4"
        }
      ],
      "services": {
        "appinvite_service": {
          "other_platform_oauth_client": [
            {
              "client_id": "421854113788-e53qjh3sief86glnfcudgi0ssue9qhp8.apps.googleusercontent.com",
              "client_type": 3
            }
          ]
        }
      }
    }
  ],
  "configuration_version": "1"
}